{
    "choose-wiki": {
        "it": "Seleziona la wiki",
        "en": "Select a wiki"
    },
    "itwiki":{
        "it": "Wikipedia in italiano",
        "en": "Italian Wikipedia"
    },
    "demowiki":{
        "it": "Versione demo",
        "en": "Demo version"
    },
    "go": {
        "it": "Vai",
        "en": "Go"
    },
    "login-required": {
        "it": "Devi essere loggato per poter usare questa funzione",
        "en": "You must be logged in to use this function"
    },
    "login-with": {
        "it": "Accedi con $1",
        "en": "$1 Login"
    },
    "reassign-mentees": {
        "it": "Riassegna allievi",
        "en": "Reassign mentees"
    },
    "reassign-mentees-mentor-name": {
        "it": "Nome del tutor del quale riassegnare gli allievi",
        "en": "Name of the mentor to whom reassign mentees"
    },
    "reassign-mentor-mentee-name":{
        "it": "Nome dell'utente del quale riassegnare il tutor",
        "en": "Name of the user to whom reassign mentor"
    },
    "username": {
        "it": "Nome utente",
        "en": "Username"
    },
    "reassign-mentees-button":{
        "it": "Riassegna",
        "en": "Reassign"
    },
    "reassign-mentor":{
        "it": "Riassegna tutor",
        "en": "Reassign mentor"
    }
}